{
	"id": "ba643977-2e50-4580-a506-ffa0a9ffeb99",
	"name": "Payments",
	"values": [
		{
			"key": "url",
			"value": "https://6ed21749-60bf-458b-b016-ef341d118350.mock.pstmn.io",
			"type": "text",
			"enabled": true
		}
	],
	"_postman_variable_scope": "environment",
	"_postman_exported_at": "2022-01-06T16:21:04.945Z",
	"_postman_exported_using": "Postman/9.8.0-220103-1150"
}
